commom function

 
follow_up_cus_res
follow_up_cus
-----------------------------------
admin

mail_status_btn
webervices/matchresult

-----------------------------------
staff

mamberlist
user_status_btn
mail_status_btn
webservices/memres
webervices/matchresult

